<?xml version="1.0" standalone="no"?>
<!DOCTYPE svg PUBLIC "-//W3C//DTD SVG 20010904//EN"
 "http://www.w3.org/TR/2001/REC-SVG-20010904/DTD/svg10.dtd">
<svg version="1.0" xmlns="http://www.w3.org/2000/svg"
 width="334.000000pt" height="150.000000pt" viewBox="0 0 334.000000 150.000000"
 preserveAspectRatio="xMidYMid meet">

<g transform="translate(0.000000,150.000000) scale(0.100000,-0.100000)"
fill="#000000" stroke="none">
<path d="M1288 1424 c-154 -80 -138 -308 27 -381 35 -15 85 -18 365 -23 353
-6 370 -9 433 -68 l27 -26 0 262 0 262 -402 0 -403 -1 -47 -25z"/>
<path d="M1182 823 l3 -268 395 0 c430 0 410 -2 492 58 33 25 68 103 68 154 0
43 -31 117 -63 151 -54 58 -66 60 -412 64 -304 4 -323 5 -377 27 -32 12 -69
36 -83 53 l-25 30 2 -269z"/>
<path d="M3195 430 c-3 -5 -3 -14 0 -20 3 -5 -1 -10 -10 -10 -30 0 -9 -25 23
-27 23 -2 32 2 32 12 0 8 -4 15 -10 15 -5 0 -9 3 -9 8 5 29 -13 44 -26 22z"/>
<path d="M2124 417 c-5 -8 -16 -17 -24 -20 -9 -3 -4 -6 12 -6 30 -1 46 15 30
31 -7 7 -13 5 -18 -5z"/>
<path d="M2755 402 c-13 -14 -2 -22 30 -22 23 0 35 5 35 13 0 13 -54 20 -65 9z"/>
<path d="M775 391 c-3 -5 -1 -12 5 -16 12 -7 30 2 30 16 0 12 -27 12 -35 0z"/>
<path d="M864 384 c3 -9 6 -38 6 -65 0 -37 4 -49 15 -49 12 0 15 14 15 65 0
59 -2 65 -21 65 -15 0 -19 -4 -15 -16z"/>
<path d="M1083 388 c2 -7 10 -13 17 -13 7 0 15 6 18 13 2 7 -5 12 -18 12 -13
0 -20 -5 -17 -12z"/>
<path d="M1218 335 c3 -48 7 -65 18 -65 11 0 14 16 14 65 0 55 -3 65 -17 65
-16 0 -18 -8 -15 -65z"/>
<path d="M1694 378 c3 -13 6 -42 6 -65 l0 -43 249 0 c273 0 261 -3 261 61 0
22 -5 29 -20 29 -16 0 -20 -7 -20 -35 0 -19 -4 -35 -10 -35 -5 0 -10 14 -10
31 0 24 -4 30 -17 27 -11 -2 -19 -14 -21 -31 -4 -37 -22 -35 -22 3 0 39 -27
41 -32 3 -2 -20 -9 -29 -25 -31 -22 -3 -23 0 -23 52 0 43 -3 56 -15 56 -12 0
-15 -13 -15 -55 0 -48 -2 -55 -20 -55 -13 0 -20 7 -20 18 0 45 -65 67 -108 36
-22 -15 -22 -14 -22 21 0 29 -3 36 -17 33 -14 -2 -19 -15 -21 -56 -3 -44 -6
-52 -23 -52 -16 0 -19 7 -19 55 0 49 -2 55 -21 55 -17 0 -20 -4 -15 -22z m206
-68 c0 -17 -7 -20 -47 -20 l-48 1 24 19 c31 27 71 27 71 0z"/>
<path d="M2885 370 l-29 -30 41 0 c54 0 73 -8 73 -31 0 -17 -8 -19 -70 -19
l-70 0 0 40 c0 44 -7 47 -59 29 -35 -12 -51 -50 -31 -74 10 -12 39 -15 136
-15 l124 0 0 39 c0 42 -10 51 -58 51 l-27 1 24 19 23 20 -24 0 c-14 0 -37 -13
-53 -30z m-85 -48 c0 -10 -3 -22 -7 -25 -10 -11 -32 13 -26 29 8 20 33 17 33
-4z"/>
<path d="M690 365 c-41 -14 -62 -54 -40 -79 9 -12 32 -16 91 -16 l79 0 0 45
c0 33 -4 45 -15 45 -10 0 -15 -11 -15 -35 0 -32 -2 -35 -29 -35 -28 0 -30 3
-33 43 l-3 44 -35 -12z m10 -45 c0 -11 -7 -20 -15 -20 -15 0 -21 21 -8 33 12
13 23 7 23 -13z"/>
<path d="M458 354 c-8 -8 3 -44 13 -44 20 0 8 -29 -13 -33 -17 -3 -14 -5 10
-6 27 -1 32 2 32 23 0 13 -7 26 -15 30 -8 3 -12 12 -9 21 6 14 -7 21 -18 9z"/>
<path d="M945 336 c-20 -30 -6 -66 25 -66 11 0 20 -7 20 -15 0 -8 -5 -15 -11
-15 -5 0 -7 -5 -4 -10 9 -14 45 7 45 25 0 12 16 15 80 15 80 0 81 0 69 23 -31
59 -78 84 -107 55 -17 -17 -15 -38 3 -38 8 0 15 7 15 15 0 20 13 19 33 -3 26
-28 21 -32 -33 -32 l-50 0 0 35 c0 33 -2 35 -35 35 -26 0 -39 -6 -50 -24z m45
-21 c0 -14 -4 -25 -10 -25 -5 0 -10 11 -10 25 0 14 5 25 10 25 6 0 10 -11 10
-25z"/>
<path d="M1305 344 c-21 -21 -16 -64 10 -78 11 -6 22 -12 25 -14 2 -2 -2 -7
-9 -11 -9 -6 -10 -11 -2 -15 23 -14 51 32 51 84 0 49 -1 50 -29 50 -16 0 -37
-7 -46 -16z m45 -34 c0 -20 -5 -30 -15 -30 -15 0 -21 40 -8 53 14 15 23 6 23
-23z"/>
<path d="M1627 354 c-3 -3 -3 -21 0 -39 6 -39 -11 -75 -36 -75 -24 0 -38 18
-43 54 -5 47 -28 45 -28 -3 0 -32 5 -44 25 -57 31 -20 90 -11 105 16 15 28 13
110 -3 110 -8 0 -16 -3 -20 -6z"/>
<path d="M2358 355 c-3 -3 -3 -25 -1 -49 4 -31 1 -47 -11 -58 -9 -9 -16 -19
-16 -22 0 -13 21 -5 40 14 24 24 29 120 7 120 -8 0 -16 -2 -19 -5z"/>
<path d="M2460 351 c0 -5 7 -11 15 -15 8 -3 15 -15 15 -26 0 -15 -7 -20 -29
-20 -17 0 -33 -5 -36 -10 -5 -7 22 -10 82 -8 l88 3 3 43 c3 38 1 43 -15 40
-13 -2 -18 -12 -18 -33 0 -23 -5 -31 -22 -33 -17 -3 -23 2 -23 17 0 11 -7 27
-16 35 -17 17 -44 21 -44 7z"/>
<path d="M3050 305 c0 -39 -4 -56 -16 -63 -11 -6 -13 -11 -5 -16 6 -4 22 4 36
18 24 24 32 26 120 26 l95 0 0 45 c0 33 -4 45 -15 45 -10 0 -15 -11 -15 -35 0
-19 -4 -35 -10 -35 -5 0 -10 14 -10 31 0 24 -4 30 -17 27 -11 -2 -19 -14 -21
-31 -4 -37 -22 -34 -22 4 0 24 -4 30 -17 27 -11 -2 -19 -14 -21 -31 -3 -23 -8
-28 -25 -25 -17 2 -23 11 -25 36 -2 20 -9 32 -18 32 -10 0 -14 -14 -14 -55z"/>
<path d="M1570 325 c0 -10 7 -15 18 -13 21 4 19 22 -2 26 -10 2 -16 -3 -16
-13z"/>
<path d="M131 311 c-6 -10 -7 -21 -4 -25 3 -3 -3 -6 -15 -6 -15 0 -22 -6 -22
-20 0 -11 5 -20 10 -20 6 0 10 7 10 15 0 11 11 15 40 15 38 0 40 2 40 30 0 25
-4 30 -25 30 -13 0 -29 -8 -34 -19z m39 -10 c0 -6 -4 -13 -10 -16 -5 -3 -10 1
-10 9 0 9 5 16 10 16 6 0 10 -4 10 -9z"/>
<path d="M312 318 c-7 -7 -12 -17 -12 -24 0 -6 -9 -14 -21 -17 -12 -3 -19 -11
-17 -18 6 -19 28 -23 28 -5 0 12 10 16 35 16 32 0 35 2 35 30 0 22 -5 30 -18
30 -10 0 -23 -5 -30 -12z"/>
<path d="M35 280 c-3 -5 1 -10 9 -10 9 0 16 5 16 10 0 6 -4 10 -9 10 -6 0 -13
-4 -16 -10z"/>
<path d="M215 280 c-3 -5 1 -10 9 -10 9 0 16 5 16 10 0 6 -4 10 -9 10 -6 0
-13 -4 -16 -10z"/>
<path d="M385 280 c-3 -5 1 -10 9 -10 9 0 16 5 16 10 0 6 -4 10 -9 10 -6 0
-13 -4 -16 -10z"/>
<path d="M1210 245 c-11 -13 -8 -15 18 -15 24 0 30 4 26 15 -4 8 -12 15 -19
15 -7 0 -18 -7 -25 -15z"/>
<path d="M2552 238 c5 -15 28 -18 29 -3 0 6 -7 12 -17 13 -10 3 -15 -1 -12
-10z"/>
<path d="M847 193 c447 -2 1179 -2 1625 0 447 1 82 2 -812 2 -894 0 -1259 -1
-813 -2z"/>
<path d="M70 173 c-24 -4 -25 -7 -22 -57 4 -51 5 -54 34 -60 16 -3 37 -2 46 3
8 5 42 6 74 3 54 -4 58 -3 52 14 -6 17 -6 18 7 2 14 -16 80 -23 185 -19 39 1
40 2 36 30 -4 26 -2 29 18 24 18 -5 21 -2 18 13 -3 16 -13 19 -73 21 -53 1
-75 -3 -89 -15 -18 -16 -19 -16 -14 11 5 24 2 27 -20 27 -14 0 -22 -3 -19 -7
4 -3 -5 -14 -21 -23 -24 -16 -29 -16 -45 -2 -23 20 -73 5 -71 -21 2 -14 -1
-15 -11 -7 -8 6 -11 19 -8 27 6 16 -22 44 -41 42 -6 -1 -22 -4 -36 -6z m42
-28 c0 -5 -5 -11 -11 -13 -6 -2 -11 4 -11 13 0 9 5 15 11 13 6 -2 11 -8 11
-13z m98 -19 c0 -2 -7 -7 -16 -10 -8 -3 -12 -2 -9 4 6 10 25 14 25 6z m100
-21 c0 -14 -4 -25 -10 -25 -5 0 -10 11 -10 25 0 14 5 25 10 25 6 0 10 -11 10
-25z m95 15 c3 -5 -1 -10 -9 -10 -9 0 -16 5 -16 10 0 6 4 10 9 10 6 0 13 -4
16 -10z m-285 -30 c0 -11 -7 -20 -15 -20 -8 0 -15 9 -15 20 0 11 7 20 15 20 8
0 15 -9 15 -20z m100 0 c0 -5 -7 -10 -16 -10 -8 0 -12 5 -9 10 3 6 10 10 16
10 5 0 9 -4 9 -10z m201 -11 c-16 -6 -28 -6 -35 1 -7 7 1 10 25 9 32 0 33 -1
10 -10z"/>
<path d="M598 169 c-29 -16 -22 -49 12 -60 17 -6 30 -18 30 -26 0 -11 -7 -13
-30 -8 -19 4 -30 3 -30 -5 0 -18 28 -23 61 -11 19 6 37 7 43 2 10 -8 31 -8
121 -2 17 2 24 5 18 8 -8 3 -13 24 -13 54 0 47 -1 49 -27 49 -21 0 -24 -3 -15
-12 14 -14 16 -88 2 -88 -5 0 -10 18 -10 40 0 36 -3 40 -24 40 -23 0 -24 -3
-20 -37 4 -35 3 -36 -5 -9 -18 54 -76 88 -113 65z m57 -29 c10 -11 15 -20 12
-20 -14 0 -57 24 -57 32 0 15 27 8 45 -12z"/>
<path d="M1457 173 c-23 -4 -26 -7 -16 -19 7 -8 9 -30 6 -53 -4 -37 -3 -39 24
-45 40 -8 79 9 79 33 0 11 -4 22 -10 26 -5 3 -6 13 -3 22 6 16 -21 44 -41 42
-6 -1 -24 -4 -39 -6z m51 -31 c2 -7 -3 -12 -12 -12 -9 0 -16 7 -16 16 0 17 22
14 28 -4z m7 -52 c0 -8 -8 -16 -17 -18 -13 -2 -18 3 -18 18 0 15 5 20 18 18 9
-2 17 -10 17 -18z"/>
<path d="M2230 169 c-29 -12 -40 -26 -40 -56 0 -41 25 -53 108 -52 42 0 83 6
90 11 9 8 11 7 6 -6 -5 -13 0 -16 24 -16 29 0 30 1 26 43 -3 36 -3 38 5 11 10
-41 19 -54 36 -54 10 0 12 10 8 40 -4 26 -2 40 6 40 6 0 11 -16 11 -35 0 -29
4 -36 26 -41 21 -5 25 -11 21 -30 -2 -13 -1 -24 3 -24 10 0 40 35 40 47 0 17
47 21 119 12 36 -5 71 -8 78 -9 7 0 9 13 6 40 -4 26 -2 40 6 40 6 0 11 -15 11
-34 0 -31 13 -46 40 -46 4 0 6 19 4 43 l-5 42 20 -35 c23 -41 20 -47 -28 -68
l-36 -16 29 -4 c19 -2 36 4 53 20 23 21 83 103 83 114 0 2 -12 4 -26 4 -18 0
-24 -4 -21 -13 3 -8 1 -20 -4 -28 -8 -12 -10 -12 -18 0 -5 8 -7 20 -4 27 3 9
-15 12 -75 12 l-80 0 4 -42 c4 -40 3 -40 -5 -7 -5 18 -15 38 -23 42 -15 10
-61 2 -66 -12 -2 -5 -13 -2 -25 6 -12 8 -36 15 -53 15 -31 0 -32 -1 -29 -37 1
-21 0 -27 -2 -13 -3 14 -9 29 -14 35 -5 5 -54 10 -107 11 -102 2 -132 -9 -132
-47 0 -22 -36 -35 -55 -19 -16 13 -20 65 -6 74 4 3 22 1 40 -4 24 -7 31 -6 31
6 0 8 -6 14 -14 14 -8 0 -20 2 -28 4 -7 3 -24 0 -38 -5z m130 -69 c0 -16 -4
-30 -9 -30 -12 0 -24 37 -16 50 12 20 25 10 25 -20z m267 -13 c-6 -19 -22 -6
-25 20 -2 27 -2 27 13 8 8 -10 14 -23 12 -28z m83 39 c0 -2 -9 -6 -20 -9 -11
-3 -18 -1 -14 4 5 9 34 13 34 5z m0 -36 c0 -5 -4 -10 -10 -10 -5 0 -10 5 -10
10 0 6 5 10 10 10 6 0 10 -4 10 -10z"/>
<path d="M1174 153 c-3 -10 -11 -29 -17 -42 -10 -20 -8 -26 11 -42 16 -12 32
-16 51 -13 17 4 41 -1 59 -10 36 -19 108 -21 118 -5 5 8 -1 10 -18 6 -24 -6
-83 11 -101 29 -4 4 0 16 10 26 15 17 15 18 -3 18 -11 0 -25 -5 -32 -12 -9 -9
-16 -7 -32 7 -22 20 -27 45 -9 45 6 0 9 -7 5 -15 -4 -10 1 -15 15 -15 14 0 19
5 17 18 -5 25 -66 30 -74 5z m32 -64 c19 -22 19 -22 -3 -10 -13 6 -23 16 -23
21 0 15 5 12 26 -11z"/>
<path d="M1784 162 c3 -5 -12 -9 -32 -10 -20 0 -48 -1 -61 -1 -13 -1 -30 -6
-37 -11 -7 -7 -15 -7 -18 -2 -3 5 -23 10 -44 10 l-37 1 0 -45 c0 -42 1 -44 30
-44 22 0 26 3 17 12 -13 13 -16 48 -4 48 12 0 26 -14 38 -35 15 -27 64 -32 81
-9 11 15 13 15 13 2 0 -10 13 -18 38 -22 69 -11 71 -10 67 32 -4 30 -3 32 3 8
8 -33 42 -59 49 -38 4 10 8 10 18 2 9 -7 23 -9 37 -4 13 4 35 7 49 5 23 -2 25
1 21 28 -4 27 -2 29 19 24 13 -4 38 -15 54 -25 l30 -19 -32 6 c-19 4 -33 3
-33 -3 0 -16 49 -23 71 -12 17 9 19 17 13 43 -3 18 -12 35 -18 39 -16 11 -44
10 -51 -2 -4 -6 -12 -7 -18 -3 -23 15 -136 13 -151 -2 -9 -10 -17 -11 -21 -5
-3 5 -15 10 -26 10 -10 0 -19 7 -19 15 0 9 -10 15 -26 15 -14 0 -23 -4 -20 -8z
m-94 -68 c0 -13 -4 -24 -10 -24 -5 0 -10 14 -10 31 0 17 4 28 10 24 6 -3 10
-17 10 -31z m250 26 c0 -5 -7 -10 -16 -10 -8 0 -12 5 -9 10 3 6 10 10 16 10 5
0 9 -4 9 -10z m167 4 c-3 -3 -12 -4 -19 -1 -8 3 -5 6 6 6 11 1 17 -2 13 -5z
m-317 -29 c0 -14 -4 -25 -10 -25 -5 0 -10 11 -10 25 0 14 5 25 10 25 6 0 10
-11 10 -25z m190 -8 c0 -8 -11 -12 -27 -11 -40 3 -42 5 -8 14 17 4 31 8 33 9
1 0 2 -5 2 -12z"/>
<path d="M826 151 c-4 -6 -2 -19 4 -30 5 -11 10 -29 10 -40 0 -14 6 -21 18
-21 15 0 17 6 14 35 -3 29 -1 34 11 29 9 -3 15 -16 14 -32 -2 -26 0 -27 72
-35 66 -7 107 -2 74 10 -15 6 -17 49 -3 58 6 4 10 -6 10 -22 0 -30 16 -53 36
-53 9 0 11 11 7 38 -8 51 -17 60 -62 60 l-39 1 5 -40 c4 -25 2 -39 -6 -39 -6
0 -11 13 -11 29 0 36 -17 50 -60 49 -19 0 -47 3 -61 7 -16 4 -29 2 -33 -4z
m114 -25 c0 -2 -7 -7 -16 -10 -8 -3 -12 -2 -9 4 6 10 25 14 25 6z m10 -36 c0
-5 -7 -10 -16 -10 -8 0 -12 5 -9 10 3 6 10 10 16 10 5 0 9 -4 9 -10z"/>
<path d="M3028 90 c12 -21 22 -28 35 -24 9 3 17 2 17 -3 0 -4 45 -7 100 -5 61
2 100 7 100 14 0 6 -10 8 -25 4 -22 -6 -25 -3 -25 19 0 16 -6 25 -15 25 -8 0
-15 -9 -15 -20 0 -11 -4 -20 -9 -20 -5 0 -16 -3 -25 -6 -12 -5 -16 0 -16 20 0
21 -5 26 -25 26 -14 0 -25 -5 -25 -12 0 -9 -3 -9 -12 0 -18 18 -38 15 -32 -5
5 -17 5 -17 -6 0 -6 9 -17 17 -25 17 -11 0 -11 -6 3 -30z m89 -12 c-3 -8 -6
-5 -6 6 -1 11 2 17 5 13 3 -3 4 -12 1 -19z"/>
</g>
</svg>
