[{"name":"Pay Value 1", "displaySequence":"Display sequence 1", "unitOfMeasure":"number 1", "effectiveStartDate":"2020-07-09", "effectiveEndDate":"2020-07-10", "display": "display", "required": "", "defaultValue": "default", "typeName": "type name", "min": 0, "max": 1000, "warningError": "error message"},
{"name":"Pay Value 2", "displaySequence":"Display sequence 2", "unitOfMeasure":"number 2", "effectiveStartDate":"2020-07-09", "effectiveEndDate":"2020-07-10", "display": "", "required": "required", "defaultValue": "default", "typeName": "type name", "min": 0, "max": 1000, "warningError": "error message"},
{"name":"Pay Value 3", "displaySequence":"Display sequence 3", "unitOfMeasure":"number 3", "effectiveStartDate":"2020-07-09", "effectiveEndDate":"2020-07-10", "display": "", "required": "required", "defaultValue": "default", "typeName": "type name", "min": 0, "max": 1000, "warningError": "error message"},
{"name":"Pay Value 4", "displaySequence":"Display sequence 4", "unitOfMeasure":"number 4", "effectiveStartDate":"2020-07-09", "effectiveEndDate":"2020-07-10", "display": "display", "required": "", "defaultValue": "default", "typeName": "type name", "min": 0, "max": 1000, "warningError": "error message"}]